EESchema Schematic File Version 4
EELAYER 30 0
EELAYER END
$Descr A4 11693 8268
encoding utf-8
Sheet 1 1
Title ""
Date ""
Rev ""
Comp ""
Comment1 ""
Comment2 ""
Comment3 ""
Comment4 ""
$EndDescr
$Comp
L esp32:Esp32 U1
U 1 1 6133EE90
P 5150 3750
F 0 "U1" H 5125 4847 60  0000 C CNN
F 1 "Esp32" H 5125 4741 60  0000 C CNN
F 2 "Esp32:Esp32" H 5150 3750 60  0001 C CNN
F 3 "" H 5150 3750 60  0001 C CNN
	1    5150 3750
	1    0    0    -1  
$EndComp
$Comp
L Connector_Generic:Conn_01x02 J1
U 1 1 613CCEF8
P 2200 3350
F 0 "J1" H 2118 3025 50  0000 C CNN
F 1 "Jack" H 2118 3116 50  0000 C CNN
F 2 "Connector_BarrelJack:BarrelJack_Horizontal" H 2200 3350 50  0001 C CNN
F 3 "~" H 2200 3350 50  0001 C CNN
	1    2200 3350
	-1   0    0    1   
$EndComp
$Comp
L Device:CP C1
U 1 1 613CEB10
P 2650 3350
F 0 "C1" H 2768 3396 50  0000 L CNN
F 1 "CP" H 2768 3305 50  0000 L CNN
F 2 "Capacitor_THT:CP_Radial_D7.5mm_P2.50mm" H 2688 3200 50  0001 C CNN
F 3 "~" H 2650 3350 50  0001 C CNN
	1    2650 3350
	1    0    0    -1  
$EndComp
$Comp
L Device:LED D1
U 1 1 613CFAFE
P 3050 3600
F 0 "D1" V 3089 3482 50  0000 R CNN
F 1 "LED" V 2998 3482 50  0000 R CNN
F 2 "LED_THT:LED_D3.0mm" H 3050 3600 50  0001 C CNN
F 3 "~" H 3050 3600 50  0001 C CNN
	1    3050 3600
	0    -1   -1   0   
$EndComp
$Comp
L Device:R R1
U 1 1 613D014E
P 3050 3100
F 0 "R1" H 3120 3146 50  0000 L CNN
F 1 "R" H 3120 3055 50  0000 L CNN
F 2 "Resistor_THT:R_Axial_DIN0207_L6.3mm_D2.5mm_P7.62mm_Horizontal" V 2980 3100 50  0001 C CNN
F 3 "~" H 3050 3100 50  0001 C CNN
	1    3050 3100
	1    0    0    -1  
$EndComp
$Comp
L Connector_Generic:Conn_01x02 J2
U 1 1 613D04A2
P 2550 2700
F 0 "J2" V 2514 2512 50  0000 R CNN
F 1 "Switch" V 2423 2512 50  0000 R CNN
F 2 "Connector_Molex:Molex_KK-254_AE-6410-02A_1x02_P2.54mm_Vertical" H 2550 2700 50  0001 C CNN
F 3 "~" H 2550 2700 50  0001 C CNN
	1    2550 2700
	0    -1   -1   0   
$EndComp
Wire Wire Line
	2400 2900 2550 2900
Wire Wire Line
	2400 2900 2400 3250
Wire Wire Line
	3050 2900 3050 2950
Wire Wire Line
	3050 3450 3050 3250
Wire Wire Line
	3050 3750 3050 3900
Wire Wire Line
	2400 3350 2400 3900
Wire Wire Line
	2400 3900 2650 3900
Wire Wire Line
	2650 2900 3050 2900
Wire Wire Line
	2650 3200 2650 2900
Connection ~ 2650 2900
Wire Wire Line
	2650 3500 2650 3900
Connection ~ 2650 3900
Wire Wire Line
	2650 3900 3050 3900
Text GLabel 3300 2900 2    50   Output ~ 0
5V
$Comp
L power:GND #PWR01
U 1 1 613E6E31
P 2650 4200
F 0 "#PWR01" H 2650 3950 50  0001 C CNN
F 1 "GND" H 2655 4027 50  0000 C CNN
F 2 "" H 2650 4200 50  0001 C CNN
F 3 "" H 2650 4200 50  0001 C CNN
	1    2650 4200
	1    0    0    -1  
$EndComp
Wire Wire Line
	2650 3900 2650 4200
Wire Wire Line
	3300 2900 3050 2900
Connection ~ 3050 2900
Text GLabel 4350 4300 0    50   Input ~ 0
5V
Wire Wire Line
	4350 4300 4650 4300
$Comp
L power:GND #PWR02
U 1 1 613E90D6
P 4050 4450
F 0 "#PWR02" H 4050 4200 50  0001 C CNN
F 1 "GND" H 4055 4277 50  0000 C CNN
F 2 "" H 4050 4450 50  0001 C CNN
F 3 "" H 4050 4450 50  0001 C CNN
	1    4050 4450
	1    0    0    -1  
$EndComp
$Comp
L power:GND #PWR03
U 1 1 613E977C
P 5850 4450
F 0 "#PWR03" H 5850 4200 50  0001 C CNN
F 1 "GND" H 5855 4277 50  0000 C CNN
F 2 "" H 5850 4450 50  0001 C CNN
F 3 "" H 5850 4450 50  0001 C CNN
	1    5850 4450
	1    0    0    -1  
$EndComp
Wire Wire Line
	5600 4200 5850 4200
Wire Wire Line
	5850 4200 5850 4350
Wire Wire Line
	4650 4200 4050 4200
Wire Wire Line
	4050 4200 4050 4450
$Comp
L Relay:G5LE-1 K1
U 1 1 613EE58C
P 8900 2350
F 0 "K1" H 9330 2396 50  0000 L CNN
F 1 "Motor" H 9330 2305 50  0000 L CNN
F 2 "Relay_THT:Relay_SPDT_Omron-G5LE-1" H 9350 2300 50  0001 L CNN
F 3 "http://www.omron.com/ecb/products/pdf/en-g5le.pdf" H 8900 2350 50  0001 C CNN
	1    8900 2350
	1    0    0    -1  
$EndComp
$Comp
L Transistor_BJT:PN2222A Q1
U 1 1 613F214B
P 8600 3050
F 0 "Q1" H 8790 3096 50  0000 L CNN
F 1 "PN2222A" H 8790 3005 50  0000 L CNN
F 2 "Package_TO_SOT_THT:TO-92_Inline" H 8800 2975 50  0001 L CIN
F 3 "https://www.onsemi.com/pub/Collateral/PN2222-D.PDF" H 8600 3050 50  0001 L CNN
	1    8600 3050
	1    0    0    -1  
$EndComp
$Comp
L Device:R R3
U 1 1 613F2FDB
P 8000 3050
F 0 "R3" V 7793 3050 50  0000 C CNN
F 1 "1K" V 7884 3050 50  0000 C CNN
F 2 "Resistor_THT:R_Axial_DIN0207_L6.3mm_D2.5mm_P7.62mm_Horizontal" V 7930 3050 50  0001 C CNN
F 3 "~" H 8000 3050 50  0001 C CNN
	1    8000 3050
	0    1    1    0   
$EndComp
Text GLabel 7500 2000 0    50   Input ~ 0
5V
Wire Wire Line
	8700 2000 8700 2050
Wire Wire Line
	8150 2000 8700 2000
Wire Wire Line
	8700 2650 8700 2750
Wire Wire Line
	8150 2750 8700 2750
Connection ~ 8700 2750
Wire Wire Line
	8700 2750 8700 2850
$Comp
L power:GND #PWR05
U 1 1 613FD33D
P 8700 3550
F 0 "#PWR05" H 8700 3300 50  0001 C CNN
F 1 "GND" H 8705 3377 50  0000 C CNN
F 2 "" H 8700 3550 50  0001 C CNN
F 3 "" H 8700 3550 50  0001 C CNN
	1    8700 3550
	1    0    0    -1  
$EndComp
Wire Wire Line
	8700 3450 8700 3250
Wire Wire Line
	8150 3050 8300 3050
Text GLabel 4400 3200 0    50   Output ~ 0
D34
Wire Wire Line
	4400 3200 4650 3200
Text GLabel 7500 3050 0    50   Input ~ 0
D34
Wire Wire Line
	7500 3050 7850 3050
$Comp
L Connector_Generic:Conn_01x02 J5
U 1 1 6140A834
P 9950 750
F 0 "J5" V 9914 562 50  0000 R CNN
F 1 "120VAC" V 9823 562 50  0000 R CNN
F 2 "TerminalBlock:TerminalBlock_Altech_AK300-2_P5.00mm" H 9950 750 50  0001 C CNN
F 3 "~" H 9950 750 50  0001 C CNN
	1    9950 750 
	0    -1   -1   0   
$EndComp
Wire Wire Line
	9650 1750 9000 1750
Wire Wire Line
	9000 1750 9000 2050
Wire Wire Line
	9200 2050 9200 1850
Wire Wire Line
	9200 1850 9450 1850
Wire Wire Line
	9850 2500 9450 2500
Wire Wire Line
	9450 1850 9450 2500
Text GLabel 9950 1150 3    50   Output ~ 0
Fase
Text GLabel 9100 2950 3    50   Input ~ 0
Fase
Wire Wire Line
	9950 1150 9950 950 
Wire Wire Line
	9100 2650 9100 2950
$Comp
L Connector_Generic:Conn_01x03 J6
U 1 1 6141DF59
P 10050 2400
F 0 "J6" H 10130 2442 50  0000 L CNN
F 1 "Conn_Motor" H 10130 2351 50  0000 L CNN
F 2 "TerminalBlock:TerminalBlock_Altech_AK300-3_P5.00mm" H 10050 2400 50  0001 C CNN
F 3 "~" H 10050 2400 50  0001 C CNN
	1    10050 2400
	1    0    0    -1  
$EndComp
Text GLabel 10050 1150 3    50   Output ~ 0
Neutro
Wire Wire Line
	10050 1150 10050 950 
Wire Wire Line
	9650 2400 9850 2400
Wire Wire Line
	9650 1750 9650 2400
Text GLabel 9800 2050 1    50   Input ~ 0
Neutro
Wire Wire Line
	9850 2300 9800 2300
Wire Wire Line
	9800 2300 9800 2050
$Comp
L Transistor_BJT:PN2222A Q2
U 1 1 61441687
P 8850 5250
F 0 "Q2" H 9040 5296 50  0000 L CNN
F 1 "PN2222A" H 9040 5205 50  0000 L CNN
F 2 "Package_TO_SOT_THT:TO-92_Inline" H 9050 5175 50  0001 L CIN
F 3 "https://www.onsemi.com/pub/Collateral/PN2222-D.PDF" H 8850 5250 50  0001 L CNN
	1    8850 5250
	1    0    0    -1  
$EndComp
$Comp
L Device:R R4
U 1 1 6144168D
P 8250 5250
F 0 "R4" V 8043 5250 50  0000 C CNN
F 1 "1K" V 8134 5250 50  0000 C CNN
F 2 "Resistor_THT:R_Axial_DIN0207_L6.3mm_D2.5mm_P7.62mm_Horizontal" V 8180 5250 50  0001 C CNN
F 3 "~" H 8250 5250 50  0001 C CNN
	1    8250 5250
	0    1    1    0   
$EndComp
Text GLabel 7750 4200 0    50   Input ~ 0
5V
$Comp
L power:GND #PWR06
U 1 1 614416A4
P 8950 5750
F 0 "#PWR06" H 8950 5500 50  0001 C CNN
F 1 "GND" H 8955 5577 50  0000 C CNN
F 2 "" H 8950 5750 50  0001 C CNN
F 3 "" H 8950 5750 50  0001 C CNN
	1    8950 5750
	1    0    0    -1  
$EndComp
Wire Wire Line
	8400 5250 8550 5250
Text GLabel 7750 5250 0    50   Input ~ 0
D35
Wire Wire Line
	7750 5250 8100 5250
Text GLabel 9350 4950 3    50   Input ~ 0
Fase
$Comp
L Connector_Generic:Conn_01x03 J7
U 1 1 614416B6
P 10300 4600
F 0 "J7" H 10380 4642 50  0000 L CNN
F 1 "Conn_Lamp" H 10380 4551 50  0000 L CNN
F 2 "TerminalBlock:TerminalBlock_Altech_AK300-3_P5.00mm" H 10300 4600 50  0001 C CNN
F 3 "~" H 10300 4600 50  0001 C CNN
	1    10300 4600
	1    0    0    -1  
$EndComp
Text GLabel 10050 4250 1    50   Input ~ 0
Neutro
Wire Wire Line
	10100 4500 10050 4500
Text GLabel 4400 3300 0    50   Output ~ 0
D35
Wire Wire Line
	4650 3300 4400 3300
Wire Wire Line
	5600 3000 6000 3000
Wire Wire Line
	6150 3000 6150 3200
Wire Wire Line
	6150 3200 6600 3200
$Comp
L power:GND #PWR04
U 1 1 6144E7E0
P 6500 2950
F 0 "#PWR04" H 6500 2700 50  0001 C CNN
F 1 "GND" H 6505 2777 50  0000 C CNN
F 2 "" H 6500 2950 50  0001 C CNN
F 3 "" H 6500 2950 50  0001 C CNN
	1    6500 2950
	0    1    1    0   
$EndComp
Text GLabel 6500 3100 0    50   Input ~ 0
3V3
Text GLabel 5700 4400 3    50   Output ~ 0
3V3
Wire Wire Line
	5600 4300 5700 4300
Wire Wire Line
	5700 4300 5700 4400
$Comp
L Device:R R5
U 1 1 6145ABC9
P 8300 3250
F 0 "R5" H 8370 3296 50  0000 L CNN
F 1 "10K" H 8370 3205 50  0000 L CNN
F 2 "Resistor_THT:R_Axial_DIN0207_L6.3mm_D2.5mm_P7.62mm_Horizontal" V 8230 3250 50  0001 C CNN
F 3 "~" H 8300 3250 50  0001 C CNN
	1    8300 3250
	1    0    0    -1  
$EndComp
Wire Wire Line
	8300 3400 8300 3450
Wire Wire Line
	8300 3450 8700 3450
Wire Wire Line
	8700 3450 8700 3550
Connection ~ 8700 3450
Wire Wire Line
	8300 3100 8300 3050
Connection ~ 8300 3050
Wire Wire Line
	8300 3050 8400 3050
$Comp
L Device:R R6
U 1 1 61461D89
P 8550 5500
F 0 "R6" H 8620 5546 50  0000 L CNN
F 1 "R" H 8620 5455 50  0000 L CNN
F 2 "Resistor_THT:R_Axial_DIN0207_L6.3mm_D2.5mm_P7.62mm_Horizontal" V 8480 5500 50  0001 C CNN
F 3 "~" H 8550 5500 50  0001 C CNN
	1    8550 5500
	1    0    0    -1  
$EndComp
Wire Wire Line
	8550 5350 8550 5250
Connection ~ 8550 5250
Wire Wire Line
	8550 5250 8650 5250
Wire Wire Line
	8950 5450 8950 5700
Wire Wire Line
	8550 5650 8550 5700
Wire Wire Line
	8550 5700 8950 5700
Connection ~ 8950 5700
Wire Wire Line
	8950 5700 8950 5750
$Comp
L Connector_Generic:Conn_01x03 J4
U 1 1 61469A87
P 6850 3850
F 0 "J4" H 6930 3892 50  0000 L CNN
F 1 "DS18b20" H 6930 3801 50  0000 L CNN
F 2 "Connector_Molex:Molex_KK-254_AE-6410-03A_1x03_P2.54mm_Vertical" H 6850 3850 50  0001 C CNN
F 3 "~" H 6850 3850 50  0001 C CNN
	1    6850 3850
	1    0    0    -1  
$EndComp
Text GLabel 6500 3650 1    50   Input ~ 0
3V3
Wire Wire Line
	6650 3750 6500 3750
Wire Wire Line
	6650 3950 6650 4350
Wire Wire Line
	6650 4350 5850 4350
Connection ~ 5850 4350
Wire Wire Line
	5850 4350 5850 4450
Wire Wire Line
	6650 3850 6400 3850
$Comp
L Device:LED D4
U 1 1 613D9D5D
P 7650 2600
F 0 "D4" V 7689 2482 50  0000 R CNN
F 1 "LED" V 7598 2482 50  0000 R CNN
F 2 "LED_THT:LED_D3.0mm" H 7650 2600 50  0001 C CNN
F 3 "~" H 7650 2600 50  0001 C CNN
	1    7650 2600
	0    -1   -1   0   
$EndComp
Wire Wire Line
	7650 2750 7650 2800
Wire Wire Line
	7650 2350 7650 2450
$Comp
L Device:R R7
U 1 1 613D9D63
P 7650 2200
F 0 "R7" H 7720 2246 50  0000 L CNN
F 1 "R" H 7720 2155 50  0000 L CNN
F 2 "Resistor_THT:R_Axial_DIN0207_L6.3mm_D2.5mm_P7.62mm_Horizontal" V 7580 2200 50  0001 C CNN
F 3 "~" H 7650 2200 50  0001 C CNN
	1    7650 2200
	1    0    0    -1  
$EndComp
Wire Wire Line
	7500 2000 7650 2000
Wire Wire Line
	7650 2000 7650 2050
Wire Wire Line
	7650 2000 8150 2000
Connection ~ 7650 2000
Connection ~ 8150 2000
$Comp
L Device:LED D5
U 1 1 61424B95
P 7950 4800
F 0 "D5" V 7989 4682 50  0000 R CNN
F 1 "LED" V 7898 4682 50  0000 R CNN
F 2 "LED_THT:LED_D3.0mm" H 7950 4800 50  0001 C CNN
F 3 "~" H 7950 4800 50  0001 C CNN
	1    7950 4800
	0    -1   -1   0   
$EndComp
Wire Wire Line
	7950 4950 7950 5000
Wire Wire Line
	7950 4550 7950 4650
$Comp
L Device:R R8
U 1 1 61424BA3
P 7950 4400
F 0 "R8" H 8020 4446 50  0000 L CNN
F 1 "R" H 8020 4355 50  0000 L CNN
F 2 "Resistor_THT:R_Axial_DIN0207_L6.3mm_D2.5mm_P7.62mm_Horizontal" V 7880 4400 50  0001 C CNN
F 3 "~" H 7950 4400 50  0001 C CNN
	1    7950 4400
	1    0    0    -1  
$EndComp
Wire Wire Line
	7750 4200 7950 4200
Wire Wire Line
	7950 4200 7950 4250
Wire Wire Line
	7950 4200 8400 4200
Connection ~ 7950 4200
Wire Wire Line
	7950 5000 8400 5000
Wire Wire Line
	7650 2800 8150 2800
Wire Wire Line
	8150 2800 8150 2750
Connection ~ 8150 2750
Wire Wire Line
	6400 3850 6400 4100
$Comp
L Device:R R2
U 1 1 61476F9F
P 6100 3850
F 0 "R2" H 6170 3896 50  0000 L CNN
F 1 "4.7K" H 6170 3805 50  0000 L CNN
F 2 "Resistor_THT:R_Axial_DIN0207_L6.3mm_D2.5mm_P7.62mm_Horizontal" V 6030 3850 50  0001 C CNN
F 3 "~" H 6100 3850 50  0001 C CNN
	1    6100 3850
	1    0    0    -1  
$EndComp
Wire Wire Line
	6400 4100 6100 4100
Wire Wire Line
	5600 4100 6100 4100
Connection ~ 6100 4100
Wire Wire Line
	6100 4100 6100 4000
Wire Wire Line
	6500 3700 6500 3650
Wire Wire Line
	6500 3750 6500 3700
Connection ~ 6500 3700
Wire Wire Line
	6100 3700 6500 3700
Wire Wire Line
	8950 4950 8950 5050
Wire Wire Line
	8400 5000 8400 4950
Connection ~ 8400 4950
Wire Wire Line
	8400 4950 8950 4950
Wire Wire Line
	10050 4500 10050 4250
$Comp
L Connector_Generic:Conn_01x06 J8
U 1 1 613FE440
P 2800 6000
F 0 "J8" H 2880 5992 50  0000 L CNN
F 1 "Digital_output" H 2880 5901 50  0000 L CNN
F 2 "Connector_Molex:Molex_KK-254_AE-6410-06A_1x06_P2.54mm_Vertical" H 2800 6000 50  0001 C CNN
F 3 "~" H 2800 6000 50  0001 C CNN
	1    2800 6000
	1    0    0    -1  
$EndComp
$Comp
L Connector_Generic:Conn_01x02 J9
U 1 1 61400018
P 2800 6500
F 0 "J9" H 2880 6492 50  0000 L CNN
F 1 "Output_GND" H 2880 6401 50  0000 L CNN
F 2 "Connector_Molex:Molex_KK-254_AE-6410-02A_1x02_P2.54mm_Vertical" H 2800 6500 50  0001 C CNN
F 3 "~" H 2800 6500 50  0001 C CNN
	1    2800 6500
	1    0    0    -1  
$EndComp
$Comp
L power:GND #PWR0101
U 1 1 61407B08
P 2300 6700
F 0 "#PWR0101" H 2300 6450 50  0001 C CNN
F 1 "GND" H 2305 6527 50  0000 C CNN
F 2 "" H 2300 6700 50  0001 C CNN
F 3 "" H 2300 6700 50  0001 C CNN
	1    2300 6700
	1    0    0    -1  
$EndComp
Wire Wire Line
	2600 6600 2300 6600
Wire Wire Line
	2300 6600 2300 6700
Wire Wire Line
	2600 6500 2300 6500
Wire Wire Line
	2300 6500 2300 6600
Connection ~ 2300 6600
Text GLabel 2550 6300 0    50   Input ~ 0
SD
Wire Wire Line
	2550 6300 2600 6300
Text GLabel 5700 3500 2    50   Output ~ 0
SD
Wire Wire Line
	5600 3500 5700 3500
Text GLabel 2550 6200 0    50   Input ~ 0
SD1
Wire Wire Line
	2550 6200 2600 6200
Text GLabel 2550 6100 0    50   Input ~ 0
SD2
Wire Wire Line
	2550 6100 2600 6100
Text GLabel 2550 6000 0    50   Input ~ 0
SD3
Wire Wire Line
	2550 6000 2600 6000
Text GLabel 2550 5900 0    50   Input ~ 0
SD4
Wire Wire Line
	2550 5900 2600 5900
Text GLabel 2550 5800 0    50   Input ~ 0
SD5
Wire Wire Line
	2550 5800 2600 5800
Text GLabel 5700 3600 2    50   Output ~ 0
SD1
Wire Wire Line
	5600 3600 5700 3600
Text GLabel 5700 3700 2    50   Output ~ 0
SD2
Wire Wire Line
	5600 3700 5700 3700
Text GLabel 5700 3800 2    50   Output ~ 0
SD3
Wire Wire Line
	5600 3800 5700 3800
Text GLabel 5700 3900 2    50   Output ~ 0
SD4
Wire Wire Line
	5600 3900 5700 3900
Text GLabel 5700 4000 2    50   Output ~ 0
SD5
Wire Wire Line
	5600 4000 5700 4000
Wire Wire Line
	9350 4850 9350 4950
Wire Wire Line
	9450 4250 9750 4250
Wire Wire Line
	9750 4250 9750 4700
Wire Wire Line
	9750 4700 10100 4700
Wire Wire Line
	10100 4600 9850 4600
Wire Wire Line
	9850 4600 9850 4150
Wire Wire Line
	9850 4150 9250 4150
Wire Wire Line
	9250 4150 9250 4250
$Comp
L Relay:G5LE-1 K2
U 1 1 61441681
P 9150 4550
F 0 "K2" H 8720 4504 50  0000 R CNN
F 1 "Lamp" H 8720 4595 50  0000 R CNN
F 2 "Relay_THT:Relay_SPDT_Omron-G5LE-1" H 9600 4500 50  0001 L CNN
F 3 "http://www.omron.com/ecb/products/pdf/en-g5le.pdf" H 9150 4550 50  0001 C CNN
	1    9150 4550
	1    0    0    -1  
$EndComp
Wire Wire Line
	8400 4200 8950 4200
Wire Wire Line
	8950 4200 8950 4250
Connection ~ 8400 4200
Wire Wire Line
	8950 4950 8950 4850
Connection ~ 8950 4950
$Comp
L Device:D D2
U 1 1 61402DF2
P 8150 2350
F 0 "D2" V 8104 2430 50  0000 L CNN
F 1 "D" V 8195 2430 50  0000 L CNN
F 2 "Diode_THT:D_A-405_P7.62mm_Horizontal" H 8150 2350 50  0001 C CNN
F 3 "~" H 8150 2350 50  0001 C CNN
	1    8150 2350
	0    1    1    0   
$EndComp
Wire Wire Line
	8150 2000 8150 2200
Wire Wire Line
	8150 2500 8150 2750
$Comp
L Device:D D3
U 1 1 6140F308
P 8400 4550
F 0 "D3" V 8354 4630 50  0000 L CNN
F 1 "D" V 8445 4630 50  0000 L CNN
F 2 "Diode_THT:D_A-405_P7.62mm_Horizontal" H 8400 4550 50  0001 C CNN
F 3 "~" H 8400 4550 50  0001 C CNN
	1    8400 4550
	0    1    1    0   
$EndComp
Wire Wire Line
	8400 4200 8400 4400
Wire Wire Line
	8400 4700 8400 4950
$Comp
L Connector_Generic:Conn_01x02 J10
U 1 1 61405FCA
P 4600 5900
F 0 "J10" H 4680 5892 50  0000 L CNN
F 1 "Output_5V" H 4680 5801 50  0000 L CNN
F 2 "Connector_Molex:Molex_KK-254_AE-6410-02A_1x02_P2.54mm_Vertical" H 4600 5900 50  0001 C CNN
F 3 "~" H 4600 5900 50  0001 C CNN
	1    4600 5900
	1    0    0    -1  
$EndComp
Text GLabel 4350 5900 0    50   Input ~ 0
5V
$Comp
L power:GND #PWR0102
U 1 1 614102BC
P 4250 6100
F 0 "#PWR0102" H 4250 5850 50  0001 C CNN
F 1 "GND" H 4255 5927 50  0000 C CNN
F 2 "" H 4250 6100 50  0001 C CNN
F 3 "" H 4250 6100 50  0001 C CNN
	1    4250 6100
	1    0    0    -1  
$EndComp
Wire Wire Line
	4250 6100 4250 6000
Wire Wire Line
	4250 6000 4400 6000
Wire Wire Line
	4350 5900 4400 5900
Text GLabel 6500 2650 0    50   Input ~ 0
3V3
$Comp
L Connector_Generic:Conn_01x04 J11
U 1 1 61419CA6
P 6800 2450
F 0 "J11" H 6880 2442 50  0000 L CNN
F 1 "BH1750" H 6880 2351 50  0000 L CNN
F 2 "Connector_Molex:Molex_KK-254_AE-6410-04A_1x04_P2.54mm_Vertical" H 6800 2450 50  0001 C CNN
F 3 "~" H 6800 2450 50  0001 C CNN
	1    6800 2450
	1    0    0    -1  
$EndComp
Wire Wire Line
	6500 2350 6600 2350
$Comp
L power:GND #PWR0103
U 1 1 61452BBB
P 6500 2350
F 0 "#PWR0103" H 6500 2100 50  0001 C CNN
F 1 "GND" H 6505 2177 50  0000 C CNN
F 2 "" H 6500 2350 50  0001 C CNN
F 3 "" H 6500 2350 50  0001 C CNN
	1    6500 2350
	0    1    1    0   
$EndComp
Wire Wire Line
	6500 2650 6600 2650
Wire Wire Line
	6600 2450 6100 2450
Wire Wire Line
	6100 2450 6100 3300
Connection ~ 6100 3300
Wire Wire Line
	6100 3300 6600 3300
Wire Wire Line
	5600 3300 6100 3300
Wire Wire Line
	6000 3000 6000 2550
Wire Wire Line
	6000 2550 6600 2550
Connection ~ 6000 3000
Wire Wire Line
	6000 3000 6150 3000
Wire Wire Line
	6600 2950 6600 3000
$Comp
L Connector_Generic:Conn_01x04 J3
U 1 1 6144A18D
P 6800 3100
F 0 "J3" H 6880 3092 50  0000 L CNN
F 1 "BM280" H 6880 3001 50  0000 L CNN
F 2 "Connector_Molex:Molex_KK-254_AE-6410-04A_1x04_P2.54mm_Vertical" H 6800 3100 50  0001 C CNN
F 3 "~" H 6800 3100 50  0001 C CNN
	1    6800 3100
	1    0    0    -1  
$EndComp
Wire Wire Line
	6500 3100 6600 3100
Wire Wire Line
	6500 2950 6600 2950
$EndSCHEMATC
